{
    "appenders": {
    "console" : {
        "type": "console",
        "category": "console"
    },        
      "app": {
        "type": "file",
        "filename": "log/log_file.log",
        "maxLogSize": 10485760,
        "numBackups": 3,
        "pattern": "-yyyy-MM-dd"
      },    
       "file" : {
        "category": "test-file-appender",
        "type": "file",
        "filename": "node_modules/assert/log_file.log",
        "maxLogSize": 10240,
        "backups": 3,
        "pattern": "%d{dd/MM hh:mm} %-5p %m"
    }
    },
    "categories": {
        "default" :{"appenders": ["console", "file"], "level": "DEBUG"},
        "file" : {"appenders": ["file", "app"], "level": "DEBUG"}
    }
}